Earthquake data downloaded from USGS

year month day	latitude	longitude	depth	mag
2019	11	26	41.5112	19.5151	20	6.4
2019	11	14	1.6294	126.4144	33	7.1
2019	11	08	-21.9688	-179.4911	582.92	6.5
2019	11	04	-18.5747	-175.272	10	6.6
2019	10	31	6.9079	125.1833	10	6.5
2019	10	29	6.7587	124.9952	14.95	6.6
2019	10	21	-19.0184	169.4883	231	6.4
2019	10	16	6.7139	125.0088	15.84	6.4
2019	09	29	-35.4758	-73.163	11	6.7
2019	09	25	-3.4528	128.3699	12.26	6.5
2019	09	01	-20.3641	-178.5701	591	6.6
2019	08	27	-60.2152	-26.5801	16	6.6
2019	08	02	-7.2822	104.7907	49	6.9
2019	08	01	-34.2364	-72.3102	25	6.8
2019	07	31	-16.1985	167.9982	181	6.6
2019	07	14	-0.5858	128.034	18.98	7.2
2019	07	14	-18.2242	120.3584	10	6.6
2019	07	07	0.5126	126.1892	35	6.9
2019	07	06	35.7695	-117.5993333	8	7.1
2019	07	04	35.7053333	-117.5038333	10.5	6.4
2019	06	28	19.8515	144.3477	410	6.4
2019	06	25	56.202	164.2327	10	6.4
2019	06	24	-6.4078	129.1692	212	7.3
2019	06	19	-30.5243	-177.8482	30	6.4
2019	06	18	38.6391	139.4769	12	6.4
2019	06	15	-30.6441	-178.0995	46	7.3
2019	06	14	-30.0557	-72.0819	11	6.4
2019	06	04	29.0665	139.289	422	6.4
2019	05	30	13.1994	-89.3056	57.92	6.6
2019	05	26	-5.8119	-75.2697	122.57	8
2019	05	14	-4.051	152.5967	10	7.6
2019	05	06	-6.9746	146.4494	146	7.1
2019	04	23	11.7547	125.2013	56	6.4
2019	04	12	-1.8146	122.5798	15.46	6.8
2019	04	09	-58.6262	-25.304	38	6.5
2019	04	05	-55.9308	-27.8522	57	6.4
2019	04	02	52.1702	178.0709	7.98	6.4
2019	03	06	-32.0238	-177.8845	29	6.4
2019	03	01	-14.7131	-70.1546	267	7
2019	02	22	-2.1862	-77.0505	145	7.5
2019	02	17	-3.3412	152.1319	368.12	6.4
2019	02	01	14.6802	-92.4527	66	6.7
2019	01	22	-43.1219	42.3568	13	6.7
2019	01	20	-30.0404	-71.3815	63	6.7
2019	01	15	-13.336	166.8752	35	6.6
2019	01	06	2.258	126.758	43.21	6.6
2019	01	05	-8.144	-71.587	570.41	6.8
2018	12	29	5.8983	126.9209	60.21	7
2018	12	23	-20.2855	-175.071	113	6.4
2018	12	20	55.0999	164.6993	16.56	7.3
2018	12	11	-58.5446	-26.3856	133	7.1
2018	12	05	-22.0629	169.7331	10	6.6
2018	12	05	-21.9496	169.4266	10	7.5
2018	12	01	-7.3841	128.7065	136	6.4
2018	11	30	61.3464	-149.9552	46.7	7.1
2018	11	18	-17.8735	-178.9273	540	6.8
2018	11	15	-56.7065	-25.546	15	6.4
2018	11	09	71.6312	-11.2431	10	6.7
2018	10	25	37.5203	20.5565	14	6.8
2018	10	22	49.297	-129.7237	10	6.5
2018	10	22	49.3346	-129.289	10	6.8
2018	10	22	49.2586	-129.4124	10	6.5
2018	10	16	-21.7427	169.5217	17	6.5
2018	10	13	52.8549	153.2429	461	6.7
2018	10	10	49.2902	156.2968	20	6.5
2018	10	10	-5.7012	151.2046	39	7
2018	09	30	-18.3604	-178.0633	550	6.7
2018	09	28	-0.2559	119.8462	20	7.5
2018	09	16	-25.415	178.1991	576	6.5
2018	09	10	-31.7447	-179.3728	115	6.9
2018	09	09	-10.0207	161.5025	68	6.5
2018	09	06	-18.4743	179.3502	670.81	7.9
2018	09	05	42.6861	141.9294	35	6.6
2018	08	29	-22.0295	170.1262	21.43	7.1
2018	08	28	16.8044	146.8395	55	6.4
2018	08	24	-11.0355	-70.8284	630	7.1
2018	08	21	-16.0315	168.1428	9	6.5
2018	08	21	10.7731	-62.9019	146.82	7.3
2018	08	19	-8.319	116.6272	21	6.9
2018	08	19	-16.9783	-178.0332	415.6	6.4
2018	08	19	-18.1125	-178.153	600	8.2
2018	08	17	-7.3718	119.8017	529	6.5
2018	08	15	51.4234	-178.0262	33.93	6.5
2018	08	12	69.5762	-145.291	15.8	6.4
2018	08	05	-8.2581	116.4375	34	6.9
2018	07	28	-8.2395	116.508	14	6.4
2018	07	13	-18.9279	169.0467	167	6.4
2018	05	04	19.3181667	-154.9996667	5.81	6.9
2018	04	02	-20.6588	-63.0058	559	6.8
2018	03	29	-5.5321	151.4999	35	6.9
2018	03	26	-5.5024	151.4025	40	6.7
2018	03	25	-6.6343	129.8172	169	6.4
2018	03	08	-4.3762	153.1996	22.86	6.8
2018	03	06	-6.3043	142.6116	20.49	6.7
2018	02	25	-6.0699	142.7536	25.21	7.5
2018	02	16	16.3855	-97.9787	22	7.2
2018	02	06	24.1338	121.6586	17	6.4
2018	01	28	-53.0623	9.6842	10	6.6
2018	01	23	56.0039	-149.1658	14.06	7.9
2018	01	14	-15.7675	-74.7092	39	7.1
2018	01	10	17.4825	-83.52	19	7.5
2017	12	15	-7.4921	108.1743	90	6.5
2017	12	13	-54.2189	2.1628	17	6.5
2017	12	08	10.1164	140.2197	12.79	6.4
2017	11	30	-1.0802	-23.4323	10	6.5
2017	11	19	-21.3246	168.6715	10	7
2017	11	19	-21.5027	168.5984	13	6.6
2017	11	17	29.8333	94.9838	8	6.4
2017	11	13	9.5147	-84.4865	19.36	6.5
2017	11	12	34.9109	45.9592	19	7.3
2017	11	07	-4.2433	143.4846	110.57	6.5
2017	11	04	-15.3197	-173.1682	10	6.8
2017	11	01	-21.6484	168.8585	22	6.6
2017	10	31	-21.6971	169.1485	24	6.7
2017	10	24	-7.2168	123.0735	553.81	6.7
2017	10	10	-54.2632	8.6086	9	6.7
2017	10	08	52.3909	176.7691	119	6.5
2017	09	26	-23.5815	-176.8371	96	6.4
2017	09	20	-18.7854	169.0946	197	6.4
2017	09	19	18.5499	-98.4887	48	7.1
2017	09	08	15.0222	-93.8993	47.39	8.2
2017	08	19	-17.9609	-178.8406	544	6.4
2017	08	18	-1.112	-13.6605	35	6.6
2017	08	13	-3.7682	101.6228	31	6.4
2017	08	08	33.1926	103.8552	9	6.5
2017	07	20	36.9293	27.4139	7	6.6
2017	07	18	-16.4161	-73.6357	43.68	6.4
2017	07	17	54.4434	168.857	10	7.7
2017	07	13	-4.7787	153.2109	34	6.4
2017	07	11	-49.4837	164.0157	10	6.6
2017	07	06	11.1269	124.6286	9	6.5
2017	06	22	13.7174	-90.9718	38.12	6.8
2017	06	14	14.9091	-92.0092	93	6.9
2017	06	02	54.0312	170.9196	5	6.8
2017	05	29	-1.2923	120.4313	12	6.6
2017	05	10	-56.414	-25.7432	15	6.5
2017	05	09	-14.5884	167.3767	169	6.8
2017	04	28	5.5043	125.0658	26	6.9
2017	04	24	-33.0375	-72.0617	28	6.9
2017	04	03	-22.6784	25.1558	29	6.5
2017	03	29	56.9401	162.7861	17	6.6
2017	02	24	-23.2593	-178.8036	414.5	6.9
2017	02	21	-19.2814	-63.9047	595.98	6.5
2017	02	18	-23.8613	-66.6592	222	6.4
2017	02	10	9.9071	125.4516	15	6.5
2017	01	22	-6.2464	155.1718	135	7.9
2017	01	19	-10.3506	161.3355	36	6.5
2017	01	10	4.4782	122.6171	627.17	7.3
2017	01	03	-19.3733	176.0518	12	6.9
2016	12	25	-43.4064	-73.9413	38	7.6
2016	12	21	-7.5082	127.9206	152	6.7
2016	12	20	-10.175	161.2271	20	6.4
2016	12	18	-9.9738	-70.9698	612	6.4
2016	12	17	-4.5049	153.5216	94.54	7.9
2016	12	09	-10.749	161.1316	19.73	6.9
2016	12	08	-10.8416	161.3137	12.26	6.5
2016	12	08	-10.6812	161.3273	40	7.8
2016	12	08	40.4535	-126.1936	8.45	6.6
2016	12	06	5.2834	96.1678	13	6.5
2016	11	25	39.2732	73.9776	17	6.6
2016	11	24	11.9097	-88.8968	10	6.9
2016	11	21	37.3931	141.387	9	6.9
2016	11	20	-31.6226	-68.6259	108	6.4
2016	11	14	-42.6058	173.2543	9	6.5
2016	11	13	-42.3205	173.6694	10	6.5
2016	11	13	-42.7373	173.054	15.11	7.8
2016	10	30	42.8621	13.0961	8	6.6
2016	10	19	-4.8626	108.1627	614	6.6
2016	10	17	-6.0033	148.8871	42	6.8
2016	09	24	-19.7819	-178.2443	596.4	6.9
2016	09	24	-18.1706	-174.984	202	6.4
2016	09	01	-37.3586	179.1461	19	7
2016	08	31	-3.6849	152.7915	476	6.8
2016	08	29	-0.0456	-17.8255	10	7.1
2016	08	24	20.9228	94.569	82	6.8
2016	08	19	-55.2852	-31.8766	10	7.4
2016	08	12	-22.4765	173.1167	16.37	7.2
2016	07	29	18.5429	145.5073	196	7.7
2016	07	25	-2.969	148.0345	14	6.4
2016	06	26	39.4793	73.3388	13	6.4
2016	06	01	-2.0967	100.6654	50	6.6
2016	05	31	25.5615	122.5458	246.4	6.4
2016	05	28	-56.2409	-26.9353	78	7.2
2016	05	28	-21.9724	-178.2038	405.69	6.9
2016	05	27	-20.8101	-178.6481	567.48	6.4
2016	05	18	0.4947	-79.616	29.95	6.9
2016	05	18	0.4261	-79.7899	16	6.7
2016	04	29	10.2752	-103.7363	10	6.6
2016	04	28	-16.0429	167.3786	24	7
2016	04	16	0.3819	-79.9218	20.59	7.8
2016	04	15	32.7906	130.7543	10	7
2016	04	14	-14.5284	166.4334	16	6.4
2016	04	13	23.0944	94.8654	136	6.9
2016	04	10	36.4725	71.1311	212	6.6
2016	04	07	-13.9805	166.5943	27.59	6.7
2016	04	06	-14.0683	166.6245	24	6.7
2016	04	03	-14.3235	166.8551	26	6.9
2016	03	20	54.294	162.8129	30	6.4
2016	03	02	-4.9521	94.3299	24	7.8
2016	02	08	-6.6207	154.7421	29	6.4
2016	02	05	22.9375	120.6014	23	6.4
2016	01	30	53.9776	158.5463	177	7.2
2016	01	24	59.6363	-153.4051	129	7.1
2016	01	21	18.8239	-106.9337	10	6.6
2016	01	14	41.9723	142.781	46	6.7
2016	01	11	3.8965	126.8621	13	6.5
2016	01	03	24.8036	93.6505	55	6.7
2015	12	17	15.8015	-93.633	85	6.6
2015	12	09	-4.1064	129.5079	21	6.9
2015	12	07	38.2107	72.7797	22	7.2
2015	12	04	-47.6165	85.0913	35	7.1
2015	11	26	-9.1825	-71.2574	602.75	6.7
2015	11	24	-10.0598	-71.0184	620.56	7.6
2015	11	24	-10.5372	-70.9437	606.21	7.6
2015	11	18	-8.8994	158.4217	12.59	6.8
2015	11	17	38.67	20.6	11	6.5
2015	11	13	31.0009	128.8729	12	6.7
2015	11	11	-29.5097	-72.0585	10	6.9
2015	11	11	-29.5067	-72.0068	12	6.9
2015	11	09	51.6394	-173.0746	15	6.5
2015	11	08	6.8431	94.648	10	6.6
2015	11	07	-30.8796	-71.4519	46	6.8
2015	11	04	-8.3381	124.8754	20	6.5
2015	10	26	36.5244	70.3676	231	7.5
2015	10	20	-14.8595	167.3028	135	7.1
2015	09	24	-0.6212	131.2622	18	6.6
2015	09	21	-31.7275	-71.3792	35	6.6
2015	09	17	-31.5173	-71.804	23	6.7
2015	09	17	-31.4244	-71.6876	27	6.5
2015	09	17	-31.1043	-71.6504	42.32	6.4
2015	09	16	-31.5622	-71.4262	28.41	7
2015	09	16	-31.618	-71.745	26.7	6.4
2015	09	16	-31.5729	-71.6744	22.44	8.3
2015	09	13	24.913	-109.6226	10	6.7
2015	08	15	-10.8968	163.8226	8	6.4
2015	08	12	-9.3293	157.8772	6.43	6.5
2015	08	10	-9.3438	158.0525	22	6.6
2015	07	29	59.8935	-153.1962	119.3	6.4
2015	07	27	-2.6286	138.5277	48	7
2015	07	27	52.376	-169.4458	29	6.9
2015	07	18	-10.4012	165.1409	11	7
2015	07	16	13.8672	-58.5479	20	6.5
2015	07	10	-9.307	158.403	12	6.7
2015	07	03	37.4593	78.1542	20	6.4
2015	06	23	27.7375	139.7254	460	6.5
2015	06	20	-36.3601	-73.812	11	6.4
2015	06	17	-35.3639	-17.1605	10	7
2015	05	30	27.8386	140.4931	664	7.8
2015	05	29	56.594	-156.4301	72.6	6.8
2015	05	22	-11.1093	163.2154	10	6.8
2015	05	22	-11.0559	163.6959	11.19	6.9
2015	05	20	-10.8759	164.1694	11	6.8
2015	05	19	-54.3312	-132.1618	7.2	6.7
2015	05	12	38.9056	142.0317	35	6.8
2015	05	12	27.8087	86.0655	15	7.3
2015	05	07	-7.2175	154.5567	10	7.1
2015	05	05	-5.4624	151.8751	55	7.5
2015	05	01	-5.2005	151.7773	44	6.8
2015	04	30	-5.375	151.7706	31	6.7
2015	04	26	27.7711	86.0173	22.91	6.7
2015	04	25	28.2244	84.8216	10	6.6
2015	04	25	28.2305	84.7314	8.22	7.8
2015	04	20	24.2026	122.3158	29	6.4
2015	04	17	-15.8815	-178.6005	10	6.5
2015	03	30	-15.4994	-173.0293	11	6.5
2015	03	30	-15.392	-172.9409	14.54	6.4
2015	03	29	-4.7294	152.5623	41	7.5
2015	03	23	-18.3534	-69.1663	130	6.4
2015	02	27	-7.2968	122.5348	552.06	7
2015	02	19	-16.4311	168.1483	10	6.4
2015	02	16	39.8558	142.8808	23	6.7
2015	02	13	52.6487	-31.9016	16.68	7.1
2015	02	11	-23.1125	-66.688	223	6.7
2015	01	23	-17.0309	168.52	219.96	6.8
2015	01	07	5.9045	-82.6576	8	6.5
2014	12	08	7.9401	-82.6865	20	6.6
2014	12	07	-6.5108	154.4603	23	6.6
2014	12	02	6.1572	123.1261	614	6.6
2014	11	26	1.9604	126.5751	39	6.8
2014	11	21	2.2999	127.0562	35	6.5
2014	11	16	-37.6478	179.6621	22	6.7
2014	11	15	1.8929	126.5217	45	7.1
2014	11	07	-5.9873	148.2315	53.19	6.6
2014	11	01	-19.6903	-177.7587	434	7.1
2014	10	14	12.5262	-88.1225	40	7.3
2014	10	09	-32.0953	-110.8647	10	6.6
2014	10	09	-32.1082	-110.8112	16.54	7
2014	09	17	13.7641	144.4294	130	6.7
2014	08	24	-14.598	-73.5714	101	6.8
2014	08	23	-32.6953	-71.4416	32	6.4
2014	08	03	0.8295	146.1688	13	6.9
2014	07	21	-19.8015	-178.4001	615.42	6.9
2014	07	11	37.0052	142.4525	20	6.5
2014	07	07	14.724	-92.4614	53	6.9
2014	07	04	-6.2304	152.8075	20	6.5
2014	06	29	-14.9831	-175.5096	18	6.7
2014	06	29	-14.7798	-175.2589	9	6.4
2014	06	29	-55.4703	-28.3669	8	6.9
2014	06	23	51.8486	178.7352	109	7.9
2014	06	23	-29.9414	-177.6073	26.59	6.7
2014	06	23	-29.9379	-177.5159	10	6.5
2014	06	23	-29.9772	-177.7247	20	6.9
2014	06	14	-10.1229	91.0921	4	6.5
2014	05	24	40.2893	25.3889	6.43	6.9
2014	05	13	7.2096	-82.3045	10	6.5
2014	05	12	-49.9403	-114.7995	10.47	6.5
2014	05	08	17.2349	-100.7461	17.09	6.4
2014	05	04	-24.6108	179.0856	527	6.6
2014	05	01	-21.4542	170.3546	106	6.6
2014	04	24	49.6388	-127.7316	10	6.5
2014	04	19	-6.7547	155.0241	43.37	7.5
2014	04	19	-6.6558	155.0869	29	6.6
2014	04	18	17.397	-100.9723	24	7.2
2014	04	15	-53.4967	8.722	11.18	6.8
2014	04	13	-11.1284	162.052	10	6.6
2014	04	13	-11.4633	162.0511	39	7.4
2014	04	12	-11.2701	162.1481	22.56	7.6
2014	04	11	11.642	-85.8779	135	6.6
2014	04	11	-6.7878	154.9502	20	6.5
2014	04	11	-6.5858	155.0485	60.53	7.1
2014	04	03	-20.7969	-70.5865	25	6.4
2014	04	03	-20.5709	-70.4931	22.4	7.7
2014	04	03	-20.3113	-70.5756	24.07	6.5
2014	04	01	-19.8927	-70.9455	28.42	6.9
2014	04	01	-19.6097	-70.7691	25	8.2
2014	03	21	7.7448	94.3342	21.54	6.4
2014	03	17	-20.0168	-70.8837	21	6.4
2014	03	16	-19.9807	-70.7022	20	6.7
2014	03	11	-60.8623	-19.9775	10	6.4
2014	03	10	40.8286667	-125.1338333	16.441	6.8
2014	03	02	27.4312	127.3674	119	6.5
2014	02	18	14.6682	-58.9272	14.83	6.5
2014	02	12	35.9053	82.5864	10	6.9
2014	02	07	-15.0691	167.3721	122	6.5
2014	02	02	-32.9076	-177.8806	44.26	6.5
2014	01	13	19.0428	-66.8096	20	6.4
2014	01	01	-13.8633	167.249	187	6.5
2013	12	01	-7.0269	128.3791	9.87	6.4
2013	11	25	-53.9451	-55.0033	11.78	7
2013	11	23	-17.1171	-176.5449	371	6.5
2013	11	17	-60.2738	-46.4011	10	7.7
2013	11	16	-60.2627	-47.0621	9.97	6.9
2013	11	12	54.6859	162.3024	43	6.4
2013	10	31	-30.2921	-71.5215	27	6.6
2013	10	25	37.1557	144.6611	35	7.1
2013	10	24	-58.153	-12.7964	22.87	6.7
2013	10	19	26.0913	-110.3209	9.45	6.6
2013	10	16	-6.4456	154.931	35	6.8
2013	10	15	9.8796	124.1167	19.04	7.1
2013	10	12	35.5142	23.2523	40	6.6
2013	10	04	-38.6062	78.3693	12.72	6.4
2013	10	01	53.1995	152.7864	573	6.7
2013	09	30	-30.9255	-178.3234	41.54	6.5
2013	09	28	27.1825	65.5052	12	6.8
2013	09	25	-15.8385	-74.5112	40	7.1
2013	09	24	26.951	65.5009	15	7.7
2013	09	07	14.6056	-92.1207	66	6.4
2013	09	04	51.5573	-174.7671	20	6.5
2013	09	04	29.9377	138.8325	402	6.5
2013	09	01	-7.44	128.2209	112	6.5
2013	08	30	51.537	-175.2297	29	7
2013	08	16	-41.734	174.152	8.2	6.5
2013	08	13	5.7732	-78.1999	12	6.7
2013	07	21	-41.704	174.337	17	6.5
2013	07	15	-60.857	-25.07	11	7.3
2013	07	07	-6.029	149.706	56	6.6
2013	07	07	-3.917	153.927	385.5	7.3
2013	06	24	10.701	-42.594	10	6.6
2013	06	15	11.763	-86.926	30	6.5
2013	06	13	-10.004	107.236	9	6.7
2013	05	24	52.235	151.444	624	6.7
2013	05	24	54.892	153.221	598.1	8.3
2013	05	23	-23.009	-177.232	173.7	7.4
2013	05	20	-44.866	-80.746	10	6.4
2013	05	14	18.728	145.288	602.2	6.8
2013	05	11	-17.965	-175.107	212.9	6.4
2013	04	23	-3.898	152.127	10	6.5
2013	04	20	30.308	102.888	14	6.6
2013	04	19	46.221	150.788	110	7.2
2013	04	16	-3.214	142.542	13	6.6
2013	04	16	28.033	61.996	80	7.7
2013	04	14	-6.475	154.607	31	6.6
2013	04	09	28.428	51.593	12	6.4
2013	04	06	-3.517	138.476	66	7
2013	03	10	-6.598	148.174	28	6.5
2013	03	01	50.958	157.408	29	6.5
2013	03	01	50.895	157.453	33	6.4
2013	02	28	50.954	157.283	41	6.9
2013	02	14	67.631	142.508	11	6.6
2013	02	09	-10.994	165.741	18	6.6
2013	02	09	1.135	-77.393	145	6.9
2013	02	08	-10.928	166.018	21	7.1
2013	02	08	-10.838	165.969	12	6.8
2013	02	07	-10.997	165.655	11	6.7
2013	02	06	-10.499	165.588	8.8	7
2013	02	06	-11.183	164.882	10	7.1
2013	02	06	-10.799	165.114	24	8
2013	02	02	42.77	143.092	107	6.9
2013	02	01	-11.12	165.378	10	6.4
2013	01	30	-28.094	-70.653	45	6.8
2013	01	05	55.228	-134.8591	8.7	7.5
2012	12	21	-14.344	167.286	200.7	6.7
2012	12	10	-6.533	129.825	155	7.1
2012	12	07	37.89	143.949	31	7.3
2012	11	16	49.28	155.425	29	6.5
2012	11	11	14.129	-92.164	20	6.5
2012	11	11	23.005	95.885	13.7	6.8
2012	11	07	13.988	-91.895	24	7.4
2012	10	28	52.788	-132.101	14	7.8
2012	10	24	10.086	-85.298	17	6.5
2012	10	12	-4.892	134.03	13	6.6
2012	10	09	-60.326	153.699	10	6.6
2012	09	30	1.929	-76.362	170	7.3
2012	09	26	51.592	-178.295	16	6.4
2012	09	05	10.085	-85.315	35	7.6
2012	08	31	10.811	126.638	28	7.6
2012	08	30	71.441	-10.605	14	6.8
2012	08	27	12.139	-88.59	28	7.3
2012	08	26	2.19	126.837	91.1	6.6
2012	08	14	49.8	145.064	583.2	7.7
2012	08	11	38.329	46.826	11	6.4
2012	07	28	-4.651	153.173	41	6.5
2012	07	26	-17.592	66.391	20	6.7
2012	07	25	-9.694	159.727	20	6.4
2012	07	25	2.707	96.045	22	6.4
2012	05	28	-28.043	-63.094	586.9	6.7
2012	04	28	-18.685	-174.705	134.7	6.6
2012	04	21	-1.617	134.276	16	6.7
2012	04	17	-5.462	147.117	198	6.8
2012	04	17	-32.625	-71.365	29	6.7
2012	04	12	28.696	-113.104	13	7
2012	04	11	18.229	-102.689	20	6.5
2012	04	11	0.802	92.463	25.1	8.2
2012	04	11	2.327	93.063	20	8.6
2012	03	25	-35.2	-72.217	40.7	7.1
2012	03	21	-6.242	145.955	118	6.6
2012	03	20	16.493	-98.231	20	7.4
2012	03	14	40.887	144.944	12	6.9
2012	03	09	-19.125	169.613	16	6.7
2012	03	03	-22.141	170.34	14	6.6
2012	02	26	51.708	95.991	12	6.7
2012	02	14	-10.39	161.102	51	6.4
2012	02	06	9.999	123.206	11	6.7
2012	02	02	-17.827	167.133	23	7.1
2012	01	30	-14.168	-75.635	43	6.4
2012	01	15	-60.948	-56.113	8	6.6
2012	01	10	2.433	93.21	19	7.2
2012	01	09	-10.617	165.16	28	6.4
2012	01	01	31.456	138.072	365.3	6.8
2011	12	27	51.842	95.911	15	6.6
2011	12	14	-7.551	146.809	135	7.1
2011	12	11	17.986	-99.789	59	6.5
2011	11	22	-15.364	-65.09	549.9	6.6
2011	11	08	27.324	125.621	224.9	6.9
2011	10	28	-14.438	-75.966	24	6.9
2011	10	23	38.721	43.508	18	7.1
2011	10	21	-28.993	-176.238	33	7.4
2011	10	14	-6.57	147.881	37	6.5
2011	09	22	-15.437	-175.311	10	6.4
2011	09	18	27.73	88.155	50	6.9
2011	09	16	40.273	142.779	30	6.7
2011	09	15	-21.611	-179.528	644.6	7.3
2011	09	09	49.535	-126.893	22	6.4
2011	09	05	2.965	97.893	91	6.7
2011	09	03	-20.671	169.716	185.1	7
2011	09	03	-56.451	-26.847	84	6.4
2011	09	02	-28.398	-63.029	578.9	6.7
2011	09	02	52.171	-171.708	32	6.9
2011	08	30	-6.362	126.752	469.8	6.9
2011	08	24	-7.641	-74.525	147	7
2011	08	20	-18.311	168.218	28	7.1
2011	08	20	-18.308	168.156	35	6.5
2011	08	20	-18.365	168.143	32	7.2
2011	07	31	-3.518	144.828	10	6.6
2011	07	29	-23.801	179.751	532	6.7
2011	07	11	9.509	122.175	19	6.4
2011	07	10	38.034	143.264	23	7
2011	07	06	-29.539	-176.34	17	7.6
2011	06	24	52.05	-171.836	52	7.3
2011	06	22	39.955	142.205	33	6.7
2011	06	20	-21.701	-68.228	128	6.4
2011	06	16	-5.928	151.04	16	6.4
2011	06	05	-55.843	146.62	3	6.4
2011	05	15	-6.104	154.414	40	6.4
2011	05	10	-20.244	168.226	11	6.8
2011	04	23	-10.375	161.2	79	6.8
2011	04	18	-34.336	179.874	86	6.6
2011	04	11	37.001	140.401	11	6.6
2011	04	07	38.276	141.588	42	7.1
2011	04	07	17.208	-94.338	166.2	6.6
2011	04	03	-9.848	107.693	14	6.7
2011	04	03	-17.642	-178.585	551.7	6.4
2011	03	24	20.687	99.822	8	6.9
2011	03	22	39.851	143.437	13	6.4
2011	03	22	37.244	144.003	11	6.4
2011	03	12	37.594	142.648	20	6.5
2011	03	11	39.241	142.463	25.7	6.6
2011	03	11	36.166	141.562	6.8	6.5
2011	03	11	38.058	144.59	18.6	7.7
2011	03	11	36.004	142.067	49.3	6.5
2011	03	11	36.023	142.269	16	6.6
2011	03	11	36.281	141.111	42.6	7.9
2011	03	11	38.969	143.37	2.8	6.7
2011	03	11	36.419	141.876	32.3	6.4
2011	03	11	37.359	143.351	35	6.4
2011	03	11	38.297	142.373	29	9.1
2011	03	10	-6.873	116.72	510.6	6.5
2011	03	09	-5.985	149.777	29	6.4
2011	03	09	38.296	142.808	15	6.5
2011	03	09	38.435	142.842	32	7.3
2011	03	06	-56.422	-27.063	87.7	6.5
2011	02	21	-26.142	178.394	558.1	6.5
2011	02	14	-35.38	-72.834	21	6.7
2011	02	11	-36.422	-72.96	26	6.9
2011	02	10	4.077	123.039	525	6.6
2011	02	10	4.195	122.974	523.2	6.5
2011	02	07	-7.154	155.184	415	6.4
2011	01	18	28.777	63.951	68	7.2
2011	01	13	-20.628	168.471	9	7
2011	01	12	26.973	139.882	512	6.4
2011	01	09	-19.155	168.312	22	6.5
2011	01	02	-38.355	-73.326	24	7.2
2011	01	01	-26.803	-63.136	576.8	7
2010	12	29	-19.661	168.14	16	6.4
2010	12	25	-19.702	167.947	16	7.3
2010	12	23	53.127	171.161	18	6.4
2010	12	22	26.81	143.595	18	6.4
2010	12	21	26.901	143.698	14	7.4
2010	12	20	28.412	59.18	12	6.7
2010	12	02	-6.001	149.977	33	6.6
2010	11	30	28.349	139.187	470	6.8
